%YAML 1.1
%TAG !u! tag:unity3d.com,2011:
--- !u!74 &7400000
AnimationClip:
  m_ObjectHideFlags: 0
  m_PrefabParentObject: {fileID: 0}
  m_PrefabInternal: {fileID: 0}
  m_Name: pengcassoPaint
  serializedVersion: 6
  m_Legacy: 0
  m_Compressed: 0
  m_UseHighQualityCurve: 1
  m_RotationCurves: []
  m_CompressedRotationCurves: []
  m_EulerCurves: []
  m_PositionCurves: []
  m_ScaleCurves: []
  m_FloatCurves: []
  m_PPtrCurves:
  - curve:
    - time: 0
      value: {fileID: 21300000, guid: 6b30afee484fb084f821025c9d4c436d, type: 3}
    - time: 0.05
      value: {fileID: 21300000, guid: 2ed924c8dd39e7141b3d5e055ce1831a, type: 3}
    - time: 0.25
      value: {fileID: 21300000, guid: 57bb4ae52bfbbcb43b9e29cb7575ee5c, type: 3}
    - time: 0.3
      value: {fileID: 21300000, guid: a9ed58efe7b3d594fb6399f2a78ed323, type: 3}
    - time: 0.5
      value: {fileID: 21300000, guid: 58d296edaeb0de048aa0bc9e7f281c4d, type: 3}
    - time: 0.55
      value: {fileID: 21300000, guid: c180b1a85c188fb46b94f9caaf313bd8, type: 3}
    - time: 0.75
      value: {fileID: 21300000, guid: 6b30afee484fb084f821025c9d4c436d, type: 3}
    attribute: m_Sprite
    path: 
    classID: 114
    script: {fileID: -765806418, guid: f70555f144d8491a825f0804e09c671c, type: 3}
  m_SampleRate: 20
  m_WrapMode: 0
  m_Bounds:
    m_Center: {x: 0, y: 0, z: 0}
    m_Extent: {x: 0, y: 0, z: 0}
  m_ClipBindingConstant:
    genericBindings:
    - serializedVersion: 2
      path: 0
      attribute: 2015549526
      script: {fileID: -765806418, guid: f70555f144d8491a825f0804e09c671c, type: 3}
      typeID: 114
      customType: 0
      isPPtrCurve: 1
    pptrCurveMapping:
    - {fileID: 21300000, guid: 6b30afee484fb084f821025c9d4c436d, type: 3}
    - {fileID: 21300000, guid: 2ed924c8dd39e7141b3d5e055ce1831a, type: 3}
    - {fileID: 21300000, guid: 57bb4ae52bfbbcb43b9e29cb7575ee5c, type: 3}
    - {fileID: 21300000, guid: a9ed58efe7b3d594fb6399f2a78ed323, type: 3}
    - {fileID: 21300000, guid: 58d296edaeb0de048aa0bc9e7f281c4d, type: 3}
    - {fileID: 21300000, guid: c180b1a85c188fb46b94f9caaf313bd8, type: 3}
    - {fileID: 21300000, guid: 6b30afee484fb084f821025c9d4c436d, type: 3}
  m_AnimationClipSettings:
    serializedVersion: 2
    m_AdditiveReferencePoseClip: {fileID: 0}
    m_AdditiveReferencePoseTime: 0
    m_StartTime: 0
    m_StopTime: 0.8
    m_OrientationOffsetY: 0
    m_Level: 0
    m_CycleOffset: 0
    m_HasAdditiveReferencePose: 0
    m_LoopTime: 1
    m_LoopBlend: 0
    m_LoopBlendOrientation: 0
    m_LoopBlendPositionY: 0
    m_LoopBlendPositionXZ: 0
    m_KeepOriginalOrientation: 0
    m_KeepOriginalPositionY: 1
    m_KeepOriginalPositionXZ: 0
    m_HeightFromFeet: 0
    m_Mirror: 0
  m_EditorCurves: []
  m_EulerEditorCurves: []
  m_HasGenericRootTransform: 0
  m_HasMotionFloatCurves: 0
  m_GenerateMotionCurves: 0
  m_Events: []
